githut --> username :  sreeni2020
          -->  pwd  :  SkyHigh@123
  
to manually install git --> apt get install git    ( ubuntu/debian)  -> yum install git (centos)


users --> ubuntu , ec2-user
------------------
How to login to host:
----------------------------
SRNUTHAK-LAP+srnuthak@SRNUTHAK-LAP MINGW64 ~/Downloads
$ ls -ltr *.pem
-r--r--r-- 1 SRNUTHAK-LAP+srnuthak 197121 1692 Aug  8 19:56 awskeypair.pem
-r--r--r-- 1 SRNUTHAK-LAP+srnuthak 197121 2635 Aug  8 20:22 oneplus.pem
-r--r--r-- 1 SRNUTHAK-LAP+srnuthak 197121 1696 Aug  8 20:31 aws.pem
-r--r--r-- 1 SRNUTHAK-LAP+srnuthak 197121 1696 Aug  9 12:11 Sreeni.pem

SRNUTHAK-LAP+srnuthak@SRNUTHAK-LAP MINGW64 ~/Downloads
$ ssh -i "Sreeni.pem" ubuntu@ec2-3-21-232-40.us-east-2.compute.amazonaws.com
load pubkey "Sreeni.pem": invalid format
The authenticity of host 'ec2-3-21-232-40.us-east-2.compute.amazonaws.com (3.21.232.40)' can't be established.
ECDSA key fingerprint is SHA256:YeutIC5bvLbcTgUinut0xy2I6p67ohmHHFezb9ARrsw.
Are you sure you want to continue connecting (yes/no/[fingerprint])? yes
Warning: Permanently added 'ec2-3-21-232-40.us-east-2.compute.amazonaws.com,3.21.232.40' (ECDSA) to the list of known hosts.
Welcome to Ubuntu 18.04.4 LTS (GNU/Linux 5.3.0-1032-aws x86_64)

 * Documentation:  https://help.ubuntu.com
 * Management:     https://landscape.canonical.com
 * Support:        https://ubuntu.com/advantage

  System information as of Sun Sep  6 05:26:55 UTC 2020

  System load:  0.03              Processes:           98
  Usage of /:   25.2% of 7.69GB   Users logged in:     0
  Memory usage: 23%               IP address for eth0: 172.31.19.32
  Swap usage:   0%

 * Kubernetes 1.19 is out! Get it in one command with:

     sudo snap install microk8s --channel=1.19 --classic

   https://microk8s.io/ has docs and details.

 * Canonical Livepatch is available for installation.
   - Reduce system reboots and improve kernel security. Activate at:
     https://ubuntu.com/livepatch

43 packages can be updated.
0 updates are security updates.


*** System restart required ***
Last login: Thu Aug 13 00:47:15 2020 from 122.167.157.202
ubuntu@ip-172-31-19-32:~$
ubuntu@ip-172-31-19-32:~$ exit
logout
Connection to ec2-3-21-232-40.us-east-2.compute.amazonaws.com closed.

SRNUTHAK-LAP+srnuthak@SRNUTHAK-LAP MINGW64 ~/Downloads
$

SRNUTHAK-LAP+srnuthak@SRNUTHAK-LAP MINGW64 ~/Downloads
$ ssh -i "Sreeni.pem" ubuntu@3.21.232.40
load pubkey "Sreeni.pem": invalid format
Welcome to Ubuntu 18.04.4 LTS (GNU/Linux 5.3.0-1032-aws x86_64)

 * Documentation:  https://help.ubuntu.com
 * Management:     https://landscape.canonical.com
 * Support:        https://ubuntu.com/advantage

  System information as of Sun Sep  6 05:28:00 UTC 2020

  System load:  0.01              Processes:           96
  Usage of /:   25.2% of 7.69GB   Users logged in:     0
  Memory usage: 23%               IP address for eth0: 172.31.19.32
  Swap usage:   0%

 * Kubernetes 1.19 is out! Get it in one command with:

     sudo snap install microk8s --channel=1.19 --classic

   https://microk8s.io/ has docs and details.

 * Canonical Livepatch is available for installation.
   - Reduce system reboots and improve kernel security. Activate at:
     https://ubuntu.com/livepatch

43 packages can be updated.
0 updates are security updates.


*** System restart required ***
Last login: Sun Sep  6 05:26:57 2020 from 122.182.224.129
ubuntu@ip-172-31-19-32:~$





GIT inititalize -

ubuntu@ip-172-31-19-32:~$ mkdir projectedu
ubuntu@ip-172-31-19-32:~$ cd projectedu/

ubuntu@ip-172-31-19-32:~/projectedu$ git config --global user.name "sreeni2020"
ubuntu@ip-172-31-19-32:~/projectedu$ git config --global user.email "sreeni.nuthakki@gmail.com"
ubuntu@ip-172-31-19-32:~/projectedu$ git status
fatal: not a git repository (or any of the parent directories): .git
ubuntu@ip-172-31-19-32:~/projectedu$ pwd
/home/ubuntu/projectedu
ubuntu@ip-172-31-19-32:~/projectedu$ git init
Initialized empty Git repository in /home/ubuntu/projectedu/.git/
ubuntu@ip-172-31-19-32:~/projectedu$ git status
On branch master

No commits yet

nothing to commit (create/copy files and use "git add" to track)
ubuntu@ip-172-31-19-32:~/projectedu$ touch app.java
ubuntu@ip-172-31-19-32:~/projectedu$ git status
On branch master

No commits yet

Untracked files:
  (use "git add <file>..." to include in what will be committed)

        app.java

nothing added to commit but untracked files present (use "git add" to track)
ubuntu@ip-172-31-19-32:~/projectedu$ git add app.java
ubuntu@ip-172-31-19-32:~/projectedu$ git status
On branch master

No commits yet

Changes to be committed:
  (use "git rm --cached <file>..." to unstage)

        new file:   app.java

ubuntu@ip-172-31-19-32:~/projectedu$ git commit -m "first change"
[master (root-commit) d871689] first change
 1 file changed, 0 insertions(+), 0 deletions(-)
 create mode 100644 app.java
ubuntu@ip-172-31-19-32:~/projectedu$

-------------------
ubuntu@ip-172-31-19-32:~/projectedu$ git --version
git version 2.17.1
ubuntu@ip-172-31-19-32:~/projectedu$ git log
commit 1a1341177f951137ab6c067782f820c15e7c6245 (HEAD -> master)
Author: sreeni2020 <sreeni.nuthakki@gmail.com>
Date:   Sun Sep 6 05:45:29 2020 +0000

    2nd change

commit d871689fc84a208e1ec8842b020115d809fb6730
Author: sreeni2020 <sreeni.nuthakki@gmail.com>
Date:   Sun Sep 6 05:42:57 2020 +0000

    first change
ubuntu@ip-172-31-19-32:~/projectedu$ vi sreeni
ubuntu@ip-172-31-19-32:~/projectedu$ git status
On branch master
Changes not staged for commit:
  (use "git add <file>..." to update what will be committed)
  (use "git checkout -- <file>..." to discard changes in working directory)

        modified:   sreeni

no changes added to commit (use "git add" and/or "git commit -a")
ubuntu@ip-172-31-19-32:~/projectedu$ git add sreeni
ubuntu@ip-172-31-19-32:~/projectedu$ git commit -m "added hi"
[master 293ce6b] added hi
 1 file changed, 1 insertion(+)
ubuntu@ip-172-31-19-32:~/projectedu$ git status
On branch master
nothing to commit, working tree clean
ubuntu@ip-172-31-19-32:~/projectedu$ git log
commit 293ce6b11cbede82ae56a8b1c33e86c370eeb1f0 (HEAD -> master)
Author: sreeni2020 <sreeni.nuthakki@gmail.com>
Date:   Sun Sep 6 05:53:16 2020 +0000

    added hi

commit 1a1341177f951137ab6c067782f820c15e7c6245
Author: sreeni2020 <sreeni.nuthakki@gmail.com>
Date:   Sun Sep 6 05:45:29 2020 +0000

    2nd change

commit d871689fc84a208e1ec8842b020115d809fb6730
Author: sreeni2020 <sreeni.nuthakki@gmail.com>
Date:   Sun Sep 6 05:42:57 2020 +0000

    first change
ubuntu@ip-172-31-19-32:~/projectedu$
-------------------------

ubuntu@ip-172-31-19-32:~/projectedu$ git clean -n
ubuntu@ip-172-31-19-32:~/projectedu$ touch newfile.123
ubuntu@ip-172-31-19-32:~/projectedu$ git clean -n------------------------>
Would remove newfile.123
ubuntu@ip-172-31-19-32:~/projectedu$ git clean -f ------------------------->
Removing newfile.123
ubuntu@ip-172-31-19-32:~/projectedu$ ls -ltr
total 4
-rw-rw-r-- 1 ubuntu ubuntu 0 Sep  6 05:41 app.java
-rw-rw-r-- 1 ubuntu ubuntu 3 Sep  6 05:52 sreeni
-rw-rw-r-- 1 ubuntu ubuntu 0 Sep  6 07:04 new1
-rw-rw-r-- 1 ubuntu ubuntu 0 Sep  6 08:09 ravi.txt
-rw-rw-r-- 1 ubuntu ubuntu 0 Sep  6 08:09 xyz.py
-rw-rw-r-- 1 ubuntu ubuntu 0 Sep  6 08:09 new.class
-rw-rw-r-- 1 ubuntu ubuntu 0 Sep  6 08:10 new.file
-rw-rw-r-- 1 ubuntu ubuntu 0 Sep  6 08:10 abc.py
ubuntu@ip-172-31-19-32:~/projectedu$

-------------------
git ignore works for newly created files
----------------------

git stash -->
ubuntu@ip-172-31-19-32:~/projectedu$ vi newcode
ubuntu@ip-172-31-19-32:~/projectedu$ ls -ltr newcode
ls: cannot access 'newcode': No such file or directory
ubuntu@ip-172-31-19-32:~/projectedu$ touch newcode
ubuntu@ip-172-31-19-32:~/projectedu$ git add .
ubuntu@ip-172-31-19-32:~/projectedu$ git status
On branch master
Changes to be committed:
  (use "git reset HEAD <file>..." to unstage)

        new file:   newcode

ubuntu@ip-172-31-19-32:~/projectedu$ git statsh
WARNING: You called a Git command named 'statsh', which does not exist.
Continuing in 0.1 seconds, assuming that you meant 'stash'.
Saved working directory and index state WIP on master: f4d788c just added
ubuntu@ip-172-31-19-32:~/projectedu$ git status
On branch master
nothing to commit, working tree clean
ubuntu@ip-172-31-19-32:~/projectedu$ git statsh list
WARNING: You called a Git command named 'statsh', which does not exist.
Continuing in 0.1 seconds, assuming that you meant 'stash'.
stash@{0}: WIP on master: f4d788c just added
ubuntu@ip-172-31-19-32:~/projectedu$


